{"page":1,"total_results":19852,"total_pages":993,"results":[{"vote_count":5472,"id":299534,"video":false,"vote_average":8.5,"title":"Avengers: Endgame","popularity":320.339,"poster_path":"\/or06FN3Dka5tukK1e9sl16pB3iy.jpg","original_language":"en","original_title":"Avengers: Endgame","genre_ids":[12,878,28],"backdrop_path":"\/7RyHsO4yDXtBv1zUU3mTpHeQ0d5.jpg","adult":false,"overview":"After the devastating events of Avengers: Infinity War, the universe is in ruins due to the efforts of the Mad Titan, Thanos. With the help of remaining allies, the Avengers must assemble once more in order to undo Thanos' actions and restore order to the universe once and for all, no matter what consequences may be in store.","release_date":"2019-04-24"},{"vote_count":568,"id":447404,"video":false,"vote_average":7.1,"title":"Pokémon Detective Pikachu","popularity":277.274,"poster_path":"\/wgQ7APnFpf1TuviKHXeEe3KnsTV.jpg","original_language":"en","original_title":"Pokémon Detective Pikachu","genre_ids":[9648,10751,35,878,28,12,16],"backdrop_path":"\/nDP33LmQwNsnPv29GQazz59HjJI.jpg","adult":false,"overview":"In a world where people collect pocket-size monsters (Pokémon) to do battle, a boy comes across an intelligent monster who seeks to be a detective.","release_date":"2019-05-03"},{"vote_count":119,"id":458156,"video":false,"vote_average":7.7,"title":"John Wick: Chapter 3 – Parabellum","popularity":236.713,"poster_path":"\/ziEuG1essDuWuC5lpWUaw1uXY2O.jpg","original_language":"en","original_title":"John Wick: Chapter 3 – Parabellum","genre_ids":[80,28,53],"backdrop_path":"\/5Wo36oWzdblY5Fgvbws0L43trRq.jpg","adult":false,"overview":"In this third installment of the adrenaline-fueled action franchise, super-assassin John Wick returns with a $14 million price tag on his head and an army of bounty-hunting killers on his trail. After killing a member of the shadowy international assassin’s guild, the High Table, John Wick is excommunicado, but the world’s most ruthless hit men and women await his every turn.","release_date":"2019-05-15"},{"vote_count":14,"id":543103,"video":false,"vote_average":5.3,"title":"Kamen Rider Heisei Generations FOREVER","popularity":158.167,"poster_path":"\/6sOFQDlkY6El1B2P5gklzJfVdsT.jpg","original_language":"ja","original_title":"仮面ライダー平成ジェネレーションズFOREVER","genre_ids":[28,12,878],"backdrop_path":"\/uufTqD2CSn1NqL3cXEl4Vp3bCav.jpg","adult":false,"overview":"In the world of Sougo Tokiwa and Sento Kiryu, their \"companions\" are losing their memories one after the other as they're replaced by other people. The Super Time Jacker, Tid , appears before them. He orders his powerful underlings, Another Double and Another Den-O, to pursue a young boy called Shingo. While fighting to protect Shingo, Sougo meets Ataru, a young man who loves Riders, but Ataru says that Kamen Riders aren't real. What is the meaning of those words? While the mystery deepens, the true enemy that Sougo and Sento must defeat appears in the Kuriogatake mountain...","release_date":"2018-12-22"},{"vote_count":4886,"id":299537,"video":false,"vote_average":7.1,"title":"Captain Marvel","popularity":154.609,"poster_path":"\/AtsgWhDnHTq68L0lLsUrCnM7TjG.jpg","original_language":"en","original_title":"Captain Marvel","genre_ids":[28,12,878],"backdrop_path":"\/w2PMyoyLU22YvrGK3smVM9fW1jj.jpg","adult":false,"overview":"The story follows Carol Danvers as she becomes one of the universe’s most powerful heroes when Earth is caught in the middle of a galactic war between two alien races. Set in the 1990s, Captain Marvel is an all-new adventure from a previously unseen period in the history of the Marvel Cinematic Universe.","release_date":"2019-03-06"},{"vote_count":382,"id":456740,"video":false,"vote_average":5,"title":"Hellboy","popularity":131.24,"poster_path":"\/bk8LyaMqUtaQ9hUShuvFznQYQKR.jpg","original_language":"en","original_title":"Hellboy","genre_ids":[28,12,14],"backdrop_path":"\/5BkSkNtfrnTuKOtTaZhl8avn4wU.jpg","adult":false,"overview":"Hellboy comes to England, where he must defeat Nimue, Merlin's consort and the Blood Queen. But their battle will bring about the end of the world, a fate he desperately tries to turn away.","release_date":"2019-04-10"},{"vote_count":13,"id":280960,"video":false,"vote_average":5.2,"title":"Catarina and the others","popularity":130.491,"poster_path":"\/kZMCbp0o46Tsg43omSHNHJKNTx9.jpg","original_language":"pt","original_title":"Catarina e os Outros","genre_ids":[18,9648],"backdrop_path":"\/9nDiMhvL3FtaWMsvvvzQIuq276X.jpg","adult":false,"overview":"Outside, the first sun rays break the dawn.  Sixteen years old Catarina can't fall asleep.  Inconsequently, in the big city adults are moved by desire...  Catarina found she is HIV positive. She wants to drag everyone else along.","release_date":"2011-03-01"},{"vote_count":9,"id":531309,"video":false,"vote_average":4.6,"title":"Brightburn","popularity":127.582,"poster_path":"\/roslEbKdY0WSgYaB5KXvPKY0bXS.jpg","original_language":"en","original_title":"Brightburn","genre_ids":[27,878,18,53],"backdrop_path":"\/uHEI6v8ApQusjbaRZ8o7WcLYeWb.jpg","adult":false,"overview":"A child from another world crash-lands on Earth, but instead of becoming a hero to mankind, he is an evil little boy.","release_date":"2019-05-10"},{"vote_count":52,"id":449562,"video":false,"vote_average":6.1,"title":"The Hustle","popularity":126.562,"poster_path":"\/qibqW5Dnvqp4hcEnoTARbQgxwJy.jpg","original_language":"en","original_title":"The Hustle","genre_ids":[35],"backdrop_path":"\/s6awXOxTKYQLSktiIJfI3969dZH.jpg","adult":false,"overview":"Two female scam artists, one low rent and the other high class, compete to swindle a naïve tech prodigy out of his fortune. A remake of the 1988 comedy \"Dirty Rotten Scoundrels.\"","release_date":"2019-05-09"},{"vote_count":1582,"id":287947,"video":false,"vote_average":7.1,"title":"Shazam!","popularity":125.818,"poster_path":"\/xnopI5Xtky18MPhK40cZAGAOVeV.jpg","original_language":"en","original_title":"Shazam!","genre_ids":[28,12,35,14],"backdrop_path":"\/bi4jh0Kt0uuZGsGJoUUfqmbrjQg.jpg","adult":false,"overview":"A boy is given the ability to become an adult superhero in times of need with a single magic word.","release_date":"2019-03-23"},{"vote_count":517,"id":438650,"video":false,"vote_average":5.2,"title":"Cold Pursuit","popularity":122.091,"poster_path":"\/otK0H9H1w3JVGJjad5Kzx3Z9kt2.jpg","original_language":"en","original_title":"Cold Pursuit","genre_ids":[28,18,53,80],"backdrop_path":"\/aiM3XxYE2JvW1vJ4AC6cI1RjAoT.jpg","adult":false,"overview":"Nels Coxman, a snowplow driver recently awarded the title of citizen of the year, triggers a series of violence and misunderstandings between two rival gangs after he starts avenging his son's death.","release_date":"2019-02-07"},{"vote_count":13549,"id":299536,"video":false,"vote_average":8.3,"title":"Avengers: Infinity War","popularity":114.554,"poster_path":"\/7WsyChQLEftFiDOVTGkv3hFpyyt.jpg","original_language":"en","original_title":"Avengers: Infinity War","genre_ids":[12,28,14],"backdrop_path":"\/bOGkgRGdhrBYJSLpXaxhXVstddV.jpg","adult":false,"overview":"As the Avengers and their allies have continued to protect the world from threats too large for any one hero to handle, a new danger has emerged from the cosmic shadows: Thanos. A despot of intergalactic infamy, his goal is to collect all six Infinity Stones, artifacts of unimaginable power, and use them to inflict his twisted will on all of reality. Everything the Avengers have fought for has led up to this moment - the fate of Earth and existence itself has never been more uncertain.","release_date":"2018-04-25"},{"vote_count":9665,"id":245891,"video":false,"vote_average":7.2,"title":"John Wick","popularity":114.464,"poster_path":"\/b9uYMMbm87IBFOq59pppvkkkgNg.jpg","original_language":"en","original_title":"John Wick","genre_ids":[28,53],"backdrop_path":"\/mFb0ygcue4ITixDkdr7wm1Tdarx.jpg","adult":false,"overview":"Ex-hitman John Wick comes out of retirement to track down the gangsters that took everything from him.","release_date":"2014-10-22"},{"vote_count":23,"id":576393,"video":false,"vote_average":5.7,"title":"Fall in Love at First Kiss","popularity":111.591,"poster_path":"\/wtaSH8MfJSCEIrrEX9SQuHdU5sl.jpg","original_language":"zh","original_title":"一吻定情","genre_ids":[10749,35],"backdrop_path":"\/yY7kr7Rgvo8W0Kr3U0bMV8Zq1qM.jpg","adult":false,"overview":"After an earthquake destroys Xiang Qin's house, she and her father move in with the family of her father's college buddy. To her surprise, her new kind and amicable aunt and uncle are the parents of her cold and distant schoolmate, Jiang Zhi Shu, a genius with an IQ of 200 whom not too long ago rejected her when she confessed her feelings for him. Will the close proximity give her a second chance to win Zhi Shu's heart? Or will her love for him end under his cold words?","release_date":"2019-02-14"},{"vote_count":1804,"id":166428,"video":false,"vote_average":7.6,"title":"How to Train Your Dragon: The Hidden World","popularity":107.472,"poster_path":"\/xvx4Yhf0DVH8G4LzNISpMfFBDy2.jpg","original_language":"en","original_title":"How to Train Your Dragon: The Hidden World","genre_ids":[16,10751,12],"backdrop_path":"\/lFwykSz3Ykj1Q3JXJURnGUTNf1o.jpg","adult":false,"overview":"As Hiccup fulfills his dream of creating a peaceful dragon utopia, Toothless’ discovery of an untamed, elusive mate draws the Night Fury away. When danger mounts at home and Hiccup’s reign as village chief is tested, both dragon and rider must make impossible decisions to save their kind.","release_date":"2019-01-03"},{"vote_count":521,"id":157433,"video":false,"vote_average":5.9,"title":"Pet Sematary","popularity":103.028,"poster_path":"\/7SPhr7Qj39vbnfF9O2qHRYaKHAL.jpg","original_language":"en","original_title":"Pet Sematary","genre_ids":[53,9648,27],"backdrop_path":"\/n2aX63BmW7zIKgKJ58e6rKlSsdi.jpg","adult":false,"overview":"Louis Creed, his wife Rachel and their two children Gage and Ellie move to a rural home where they are welcomed and enlightened about the eerie 'Pet Sematary' located nearby. After the tragedy of their cat being killed by a truck, Louis resorts to burying it in the mysterious pet cemetery, which is definitely not as it seems, as it proves to the Creeds that sometimes dead is better.","release_date":"2019-04-04"},{"vote_count":905,"id":537915,"video":false,"vote_average":6,"title":"After","popularity":98.706,"poster_path":"\/u3B2YKUjWABcxXZ6Nm9h10hLUbh.jpg","original_language":"en","original_title":"After","genre_ids":[18,10749],"backdrop_path":"\/997ToEZvF2Obp9zNZbY5ELVnmrW.jpg","adult":false,"overview":"A young woman falls for a guy with a dark secret and the two embark on a rocky relationship.","release_date":"2019-04-11"},{"vote_count":2829,"id":450465,"video":false,"vote_average":6.5,"title":"Glass","popularity":93.085,"poster_path":"\/svIDTNUoajS8dLEo7EosxvyAsgJ.jpg","original_language":"en","original_title":"Glass","genre_ids":[53,9648,18,14,878],"backdrop_path":"\/lvjscO8wmpEbIfOEZi92Je8Ktlg.jpg","adult":false,"overview":"In a series of escalating encounters, security guard David Dunn uses his supernatural abilities to track Kevin Wendell Crumb, a disturbed man who has twenty-four personalities. Meanwhile, the shadowy presence of Elijah Price emerges as an orchestrator who holds secrets critical to both men.","release_date":"2019-01-16"},{"vote_count":12098,"id":284054,"video":false,"vote_average":7.4,"title":"Black Panther","popularity":79.896,"poster_path":"\/uxzzxijgPIY7slzFvMotPv8wjKA.jpg","original_language":"en","original_title":"Black Panther","genre_ids":[28,12,14,878],"backdrop_path":"\/6ELJEzQJ3Y45HczvreC3dg0GV5R.jpg","adult":false,"overview":"King T'Challa returns home from America to the reclusive, technologically advanced African nation of Wakanda to serve as his country's new leader. However, T'Challa soon finds that he is challenged for the throne by factions within his own country as well as without. Using powers reserved to Wakandan kings, T'Challa assumes the Black Panther mantel to join with girlfriend Nakia, the queen-mother, his princess-kid sister, members of the Dora Milaje (the Wakandan 'special forces') and an American secret agent, to prevent Wakanda from being dragged into a world war.","release_date":"2018-02-13"},{"vote_count":1117,"id":375588,"video":false,"vote_average":5.7,"title":"Robin Hood","popularity":76.853,"poster_path":"\/AiRfixFcfTkNbn2A73qVJPlpkUo.jpg","original_language":"en","original_title":"Robin Hood","genre_ids":[12,28,53],"backdrop_path":"\/axjFiijtxdfK3CD9dMwrdgLwblD.jpg","adult":false,"overview":"A war-hardened Crusader and his Moorish commander mount an audacious revolt against the corrupt English crown.","release_date":"2018-11-20"}]}